<?xml version="1.0" encoding="UTF-8" standalone="no"?>
<!DOCTYPE svg PUBLIC "-//W3C//DTD SVG 1.1//EN"
 "http://www.w3.org/Graphics/SVG/1.1/DTD/svg11.dtd">
<!-- Generated by graphviz version 2.38.0 (20140413.2041)
 -->
<!-- Title: G Pages: 1 -->
<svg width="220pt" height="96pt"
 viewBox="0.00 0.00 220.00 96.00" xmlns="http://www.w3.org/2000/svg" xmlns:xlink="http://www.w3.org/1999/xlink">
<g id="graph0" class="graph" transform="scale(1 1) rotate(0) translate(4 92)">
<title>G</title>
<polygon fill="white" stroke="none" points="-4,4 -4,-92 216,-92 216,4 -4,4"/>
<g id="clust1" class="cluster"><title>cluster_Global</title>
<path fill="none" stroke="gray" d="M20,-8C20,-8 192,-8 192,-8 198,-8 204,-14 204,-20 204,-20 204,-68 204,-68 204,-74 198,-80 192,-80 192,-80 20,-80 20,-80 14,-80 8,-74 8,-68 8,-68 8,-20 8,-20 8,-14 14,-8 20,-8"/>
<text text-anchor="middle" x="106" y="-67.2" font-family="Times New Roman,serif" font-size="11.00" fill="gray">Global</text>
</g>
<!-- \\PDF -->
<g id="node1" class="node"><title>\\PDF</title>
<polygon fill="none" stroke="black" points="196,-52 142,-52 142,-16 196,-16 196,-52"/>
<text text-anchor="middle" x="169" y="-31.2" font-family="Courier,monospace" font-size="11.00">PDF</text>
</g>
<!-- \\FPDF -->
<g id="node2" class="node"><title>\\FPDF</title>
<polygon fill="none" stroke="black" points="70,-52 16,-52 16,-16 70,-16 70,-52"/>
<text text-anchor="middle" x="43" y="-31.2" font-family="Courier,monospace" font-size="11.00">FPDF</text>
</g>
<!-- \\PDF&#45;&gt;\\FPDF -->
<g id="edge1" class="edge"><title>\\PDF&#45;&gt;\\FPDF</title>
<path fill="none" stroke="black" d="M141.703,-34C123.865,-34 100.047,-34 80.3935,-34"/>
<polygon fill="none" stroke="black" points="80.2593,-30.5001 70.2593,-34 80.2593,-37.5001 80.2593,-30.5001"/>
</g>
</g>
</svg>
